<?xml version="1.0" encoding="utf-8"?>
<!-- Generator: Adobe Illustrator 16.0.4, SVG Export Plug-In . SVG Version: 6.00 Build 0)  -->
<!DOCTYPE svg PUBLIC "-//W3C//DTD SVG 1.1//EN" "http://www.w3.org/Graphics/SVG/1.1/DTD/svg11.dtd">
<svg version="1.1" id="UCLA_logo_BLU" xmlns="http://www.w3.org/2000/svg" xmlns:xlink="http://www.w3.org/1999/xlink" x="0px"
	 y="0px" width="555.699px" height="179.008px" viewBox="0 0 555.699 179.008" enable-background="new 0 0 555.699 179.008"
	 xml:space="preserve">
<g>
	<path fill="#3284BF" d="M0.482,126.609c-0.766-5.88-0.39-14.396-0.39-18.581L8.932,7.673h32.864l-9.005,101.233
		c-1.941,21.913,6.652,37.541,28.531,37.541c22.361,0,34.183-15.893,36.134-35.32L106.78,7.673h32.838l-9.081,102.148
		c-3.663,39.344-29.762,68.806-71.938,68.806C25.698,178.627,4.507,157.364,0.482,126.609"/>
	<path fill="#3284BF" d="M152.974,92.619c4.286-48.175,36.791-88.117,92.936-88.117c14.789,0,28.97,3.363,43.146,12.482
		l-3.751,39.801c-12.945-17.035-28.324-19.8-42.531-19.8c-34.938,0-54.1,24.263-56.838,54.979
		c-2.651,29.911,12.791,54.234,46.632,54.234c14.776,0,30.438-4.274,46.855-20.651l-3.65,40.857
		c-15.957,8.666-30.83,12.603-45.79,12.603C174.424,179.008,148.978,137.722,152.974,92.619"/>
	<path fill="#3284BF" d="M315.296,7.673h32.771l-11.967,136.293h46.956c3.311,0,14.496-0.172,17.538-0.352
		c-0.175,1.644-2.997,31.486-2.997,31.486h-97.17L315.296,7.673z"/>
	<path fill="#3284BF" d="M486.013,70.179c1.082-2.379,2.056-5.315,2.437-7.04c0-0.013,0.514-0.013,0.514-0.013
		c0.188,2.105,0.573,4.613,1.252,7.082c1.793,7.639,14.57,50.02,14.57,50.02h-41.378C463.407,120.229,485.576,71.253,486.013,70.179
		 M494.417,0l-2.269,0.039l-89.72,175.062h34.822l12.603-26.557h63.214l7.904,26.557h34.728L494.417,0z"/>
</g>
</svg>
